[
  {
    "type": 1,
    "title": "Data",
    "key": "dataCategory"
  },
  {
    "type": 2,
    "title": "Can you fix incorrect data?",
    "summary": "Yes, some data can be incorrect in some cases, but you will most often see the right data. I can try to fix some data issues, but I can’t fix issues caused by manufacturers",
    "key": "dataInfo1"
  },
  {
    "type": 1,
    "title": "Permissions",
    "key": "permissionsCategory"
  },
  {
    "type": 2,
    "title": "Why is the Read Phone State permission needed?",
    "summary": "It is used to display your device’s IMEI number",
    "key": "permissionInfo1"
  },
  {
    "type": 2,
    "title": "Why is the location permission needed?",
    "summary": "It is used to read detailed information about your Wi-Fi connection",
    "key": "permissionInfo2"
  },
  {
    "type": 2,
    "title": "Can I deny all additional permissions?",
    "summary": "Yes, though certain data may be displayed as unavailable",
    "key": "permissionInfo3"
  },
  {
    "type": 1,
    "title": "System",
    "key": "systemCategory"
  },
  {
    "type": 2,
    "title": "Why is the ‘Released with’ data incorrect?",
    "summary": "This info may be unavailable if you are using a custom ROM or if the manufacturer of your device didn’t add it to the system",
    "key": "systemInfo1"
  },
  {
    "type": 2,
    "title": "Can I view more info about my device’s kernel version?",
    "summary": "Tap ‘Kernel version‘ to view detailed info. If nothing happens upon tap, this data isn’t available for your device",
    "key": "systemInfo2"
  },
  {
    "type": 1,
    "title": "Hardware",
    "key": "hardwareCategory"
  },
  {
    "type": 2,
    "title": "Almost all info about the GPU is marked as ‘Unavailable’, can you fix this?",
    "summary": "In most cases, this is caused by SELinux which could prevent third-party apps from reading this kind of information if set to ‘Enforcing’. So probably not",
    "key": "harwareInfo1"
  },
  {
    "type": 1,
    "title": "Other",
    "key": "otherCategory"
  },
  {
    "type": 2,
    "title": "Is there an easter egg in the app?",
    "summary": "Yes",
    "key": "otherInfo1"
  }
]