[
  {
    "type": 1,
    "title": "Daten",
    "key": "dataCategory"
  },
  {
    "type": 2,
    "title": "Können fehlerhafte Daten korrigiert werden?",
    "summary": "Ja, in manchen Fällen können bestimmte Daten fehlerhaft sein, jedoch sollte meistens das Richtige angezeigt werden. Ich kann versuchen die fehlerhaften Daten zu korrigieren, jedoch keine Herstellerspezifischen fehler",
    "key": "dataInfo1"
  },
  {
    "type": 1,
    "title": "Berechtigungen",
    "key": "permissionsCategory"
  },
  {
    "type": 2,
    "title": "Warum muss die Berechtigung zum Telefonstatus lesen gegeben werden?",
    "summary": "Das ist erforderlich um die IMEI Nummer des Telefons zu lesen",
    "key": "permissionInfo1"
  },
  {
    "type": 2,
    "title": "Warum muss die Berechtigung des Standorts gegeben werden?",
    "summary": "Das ist erforderlich um den Status der Wi-Fi Verbindung anzuzeigen",
    "key": "permissionInfo2"
  },
  {
    "type": 2,
    "title": "Kann ich die Berechtigungen ablehnen?",
    "summary": "Ja, aber dazugehörige Daten können dann nicht angezeigt werden",
    "key": "permissionInfo3"
  },
  {
    "type": 1,
    "title": "System",
    "key": "systemCategory"
  },
  {
    "type": 2,
    "title": "Warum ist die ‘Herausgegeben mit’ anzeige nicht richtig?",
    "summary": "Diese Information kann falsch sein wenn eine Custom ROM in benutzung ist, oder der Gerätehersteller diese Information nicht bereitstellt",
    "key": "systemInfo1"
  },
  {
    "type": 2,
    "title": "Kann ich mehr Informationen über mein Gerätekernel erfahren?",
    "summary": "Tippe dazu ‘Kernel-Version‘ an um detaillierte INformationen zu erhalten. Wenn beim tippen nichts passiert sind diese Informationen für dein Gerät nicht verfügbar",
    "key": "systemInfo2"
  },
  {
    "type": 1,
    "title": "Hardware",
    "key": "hardwareCategory"
  },
  {
    "type": 2,
    "title": " Fast alle Informationen über die GPU sind nicht verfügbar, kann das behoben werden?",
    "summary": "In den meisten Fällen hindert der SELinux Status 'Strikt oder Enforcing' Drittherstellerapps diese Informationen zu lesen, also höchstwarscheinlich nicht.",
    "key": "harwareInfo1"
  },
  {
    "type": 1,
    "title": "Anderes",
    "key": "otherCategory"
  },
  {
    "type": 2,
    "title": "Gibt es ein Easter Egg in der App??",
    "summary": "Ja",
    "key": "otherInfo1"
  }
]